…
# Summarize Data

``` r
total <- long_data %>%
  group_by(Group, Year) %>%
  summarize(Total = sum(Population, na.rm=TRUE)) %>%
  ungroup()
#> `summarise()` has grouped output by 'Group'. You can override using the `.groups` argument.
total
#> # A tibble: 22 x 3
#>    Group     Year  Total
#>    <chr>    <dbl>  <dbl>
#>  1 Base      2000 349833
#>  2 Base      2010 369988
#>  3 Estimate  2000 350533
#>  4 Estimate  2001 353593
#>  5 Estimate  2002 356684
#>  6 Estimate  2003 360073
#>  7 Estimate  2004 362658
#>  8 Estimate  2005 364367
#>  9 Estimate  2006 365449
#> 10 Estimate  2007 367266
#> # ... with 12 more rows
…
ACSGrowth <- tmp %>%
  group_by(NAME) %>%
  summarize(NAMELSAD=first(NAMELSAD),
            COUSUB = first(COUSUB),
            ACSFirstYr = min(Year),
            ACSAnnRate = Ann.Pct.Change(Population, Year),
            ACSGrowth = Tot.Pct.Change(Population, Year)) %>%
  ungroup()
ACSGrowth
#> # A tibble: 47 x 6
#>    NAME             NAMELSAD              COUSUB ACSFirstYr ACSAnnRate ACSGrowth
#>    <chr>            <chr>                  <dbl>      <dbl>      <dbl>     <dbl>
#>  1 Auburn           Auburn city             2060       2000   0.000719    0.0129
#>  2 Baldwin          Baldwin town            2655       2000   1.21       24.2   
#>  3 Bath             Bath city               3355       2000  -0.581      -9.96  
#>  4 Bethel           Bethel town             4825       2000   0.636      12.1   
#>  5 Bridgton         Bridgton town           7170       2000   0.519       9.78  
#>  6 Brunswick        Brunswick town          8430       2000  -0.187      -3.32  
#>  7 Buxton           Buxton town             9410       2000   0.580      11.0   
#>  8 Cape Elizabeth   Cape Elizabeth town    10180       2000   0.161       2.93  
#>  9 Casco            Casco town             11125       2000   0.630      12.0   
#> 10 Chebeague Island Chebeague Island town  12300       2000  -0.0785     -1.40  
#> # ... with 37 more rows
```
…
tmp2 <- tmp %>%
  filter(Year>1999 & Year < 2006)   # ONLY  2000 to 2005

ACSGrowth2000 <- tmp2 %>% group_by(NAME) %>%
  summarize(ACS2000AnnRate = Ann.Pct.Change(Population, Year),
            ACSPop2000= first(Population[Year==2000]) ) %>%
  ungroup()
ACSGrowth2000
#> # A tibble: 47 x 3
#>    NAME             ACS2000AnnRate ACSPop2000
#>    <chr>                     <dbl>      <dbl>
#>  1 Auburn                   0.226       23193
#>  2 Baldwin                  1.86         1295
#>  3 Bath                    -0.516        9250
#>  4 Bethel                   1.09         2424
#>  5 Bridgton                 0.809        4890
#>  6 Brunswick               -0.190       21184
#>  7 Buxton                   1.29         7488
#>  8 Cape Elizabeth           0.0794       9048
#>  9 Casco                    0.863        3485
#> 10 Chebeague Island        -0.339         356
#> # ... with 37 more rows
```

## ACS growth in 2005 to 2010

``` r
tmp2 <-  tmp %>%
  filter(Year>2004 & Year < 2011)   # ONLY  2005 to 2010

ACSGrowth2005 <- tmp2 %>% group_by(NAME) %>%
  summarize(ACS2005AnnRate = Ann.Pct.Change(Population, Year),
            ACSPop2010Left = first(Population[Year==2010])) %>%
  ungroup()
ACSGrowth2005
#> # A tibble: 47 x 3
#>    NAME             ACS2005AnnRate ACSPop2010Left
#>    <chr>                     <dbl>          <dbl>
#>  1 Auburn                   -0.359          23038
#>  2 Baldwin                   1.42            1524
#>  3 Bath                     -1.17            8498
#>  4 Bethel                    0.342           2603
#>  5 Bridgton                  0.448           5206
#>  6 Brunswick                -0.696          20263
#>  7 Buxton                    0.132           8037
#>  8 Cape Elizabeth           -0.168           9008
#>  9 Casco                     0.549           3739
#> 10 Chebeague Island         -0.520            341
#> # ... with 37 more rows
```
…
ACSGrowth2010 <- tmp2 %>% group_by(NAME) %>%
  summarize(ACS2010AnnRate = Ann.Pct.Change(Population, Year),
            ACSPop2010Right = first(Population[Year==2010])) %>%
  ungroup()
ACSGrowth2010
#> # A tibble: 47 x 3
#>    NAME             ACS2010AnnRate ACSPop2010Right
#>    <chr>                     <dbl>           <dbl>
#>  1 Auburn                   -0.102           23055
#>  2 Baldwin                   0.763            1524
#>  3 Bath                     -0.420            8490
#>  4 Bethel                    0.314            2599
#>  5 Bridgton                  0.569            5214
#>  6 Brunswick                 0.379           20255
#>  7 Buxton                    0.267            8037
#>  8 Cape Elizabeth            0.556            9005
#>  9 Casco                     0.676            3738
#> 10 Chebeague Island          0.639             340
#> # ... with 37 more rows
```

## ACS growth in 2015 to 2018 only

``` r
tmp2 <- tmp %>%
filter(Year>2014)    # ONLY the  2015s data on

ACSGrowth2015 <- tmp2 %>% group_by(NAME) %>%
  summarize(ACS2015AnnRate = Ann.Pct.Change(Population, Year),
            ACSPop2018 = first(Population[Year==2018])) %>%
  ungroup()
ACSGrowth2015
#> # A tibble: 47 x 3
#>    NAME             ACS2015AnnRate ACSPop2018
#>    <chr>                     <dbl>      <dbl>
#>  1 Auburn                   0.374       23196
#>  2 Baldwin                  0.524        1608
#>  3 Bath                     0.0641       8329
#>  4 Bethel                   0.963        2717
#>  5 Bridgton                 0.0249       5368
#>  6 Brunswick               -0.261       20481
#>  7 Buxton                   0.671        8310
#>  8 Cape Elizabeth           0.198        9313
#>  9 Casco                    0.309        3902
#> 10 Chebeague Island         0             351
#> # ... with 37 more rows
```
…
